%YAML 1.1
%TAG !u! tag:unity3d.com,2011:
--- !u!1045 &1
EditorBuildSettings:
  m_ObjectHideFlags: 0
  serializedVersion: 2
  m_Scenes:
  - enabled: 1
    path: Assets/Common/Menu.unity
    guid: 691a4f337a949654d87fe1c8c519b65b
  - enabled: 1
    path: Assets/ConnectTheDots/ConnectTheDots.unity
    guid: e05a6f4b40f9e4d11877e050c22f1926
  - enabled: 1
    path: Assets/Spin/Scenes/Spinning.unity
    guid: 75c64c8257c005743ba4a5affe789761
  - enabled: 1
    path: Assets/Stamps/Stamps.unity
    guid: 023e1d96f197a3e46a2f08ac027ad5bc
  m_configObjects: {}
