%YAML 1.1
%TAG !u! tag:unity3d.com,2011:
--- !u!114 &11400000
MonoBehaviour:
  m_ObjectHideFlags: 0
  m_CorrespondingSourceObject: {fileID: 0}
  m_PrefabInstance: {fileID: 0}
  m_PrefabAsset: {fileID: 0}
  m_GameObject: {fileID: 0}
  m_Enabled: 1
  m_EditorHideFlags: 0
  m_Script: {fileID: 11500000, guid: 9890a6b361d2a422d8d436c4e9e6b8c1, type: 3}
  m_Name: SFXData
  m_EditorClassIdentifier: 
  clearCanvas:
    clips:
    - {fileID: 8300000, guid: c6990438ec66345939cb62d6869d8b3f, type: 3}
    - {fileID: 8300000, guid: 6505449c9d0e94596889c75ba67d83fe, type: 3}
    - {fileID: 8300000, guid: 7b6ed9cfbfa1b439c91955a06659dd06, type: 3}
    - {fileID: 8300000, guid: 73b732992f9de4ce79ec9371912a9b69, type: 3}
    - {fileID: 8300000, guid: ccf0fda2235384916980b75e866643c2, type: 3}
    playbackMode: 0
  colorPick:
    clips:
    - {fileID: 8300000, guid: 3bc5ae1af04054fcebce873fa38b3a40, type: 3}
    - {fileID: 8300000, guid: 35df58d544008402fa68ee6b889c95b4, type: 3}
    - {fileID: 8300000, guid: 66b21f4228d7d4550a1273c0f7e6f051, type: 3}
    - {fileID: 8300000, guid: df876d14866164a76977f80c1bdaf33f, type: 3}
    - {fileID: 8300000, guid: 2d35a3f8dbe63413189de24a6a30b894, type: 3}
    playbackMode: 0
  colorFillRR:
    clips:
    - {fileID: 8300000, guid: 0f2eca58addc74dadb7f2ea5240a25e5, type: 3}
    - {fileID: 8300000, guid: e9e6432592e444bc68cd04d433698604, type: 3}
    - {fileID: 8300000, guid: 681a809e5236541aebba6a45bdccb9ee, type: 3}
    - {fileID: 8300000, guid: b0e82280cf5c24417b8a93a41c573cb0, type: 3}
    - {fileID: 8300000, guid: 6be1d938082ee4b3e8cee7a39eac864b, type: 3}
    playbackMode: 1
  colorFillBlue:
    clips:
    - {fileID: 8300000, guid: 0f2eca58addc74dadb7f2ea5240a25e5, type: 3}
    playbackMode: 0
  colorFillGreen:
    clips:
    - {fileID: 8300000, guid: e9e6432592e444bc68cd04d433698604, type: 3}
    playbackMode: 0
  colorFillOrange:
    clips:
    - {fileID: 8300000, guid: 681a809e5236541aebba6a45bdccb9ee, type: 3}
    playbackMode: 0
  colorFillRed:
    clips:
    - {fileID: 8300000, guid: b0e82280cf5c24417b8a93a41c573cb0, type: 3}
    playbackMode: 0
  colorFillYellow:
    clips:
    - {fileID: 8300000, guid: 6be1d938082ee4b3e8cee7a39eac864b, type: 3}
    playbackMode: 0
  spin:
    clips:
    - {fileID: 8300000, guid: dafdb48ff020341029d97dc262cfca8e, type: 3}
    playbackMode: 2
  spinSwitch:
    clips:
    - {fileID: 8300000, guid: 1e9bfa320e947479e9194b6daca7c962, type: 3}
    - {fileID: 8300000, guid: f20dde9a977ed4132bbab9cd111c50ef, type: 3}
    - {fileID: 8300000, guid: 2166267609f9a4b58921ad207aadae0d, type: 3}
    - {fileID: 8300000, guid: b7f6f4b50ecb343ecb480567deac1c29, type: 3}
    - {fileID: 8300000, guid: 260d2ef0438c14acea34009b5705bdc3, type: 3}
    playbackMode: 0
  brushSelect:
    clips:
    - {fileID: 8300000, guid: 99c984ce94d284afca630b0bcd150707, type: 3}
    - {fileID: 8300000, guid: f0053a82e1f804fbba9429baae03d6e5, type: 3}
    - {fileID: 8300000, guid: 2a21382122c88417ea4f42a410ef2053, type: 3}
    - {fileID: 8300000, guid: 12f83d61176d84635938b3738afccf76, type: 3}
    playbackMode: 0
  stamps:
    clips: []
    playbackMode: 0
